<svg width="20" height="20" viewBox="0 0 20 20" fill="none" xmlns="http://www.w3.org/2000/svg">
<path d="M17.1577 11.1753L11.1827 17.1503C11.0279 17.3053 10.8441 17.4282 10.6417 17.5121C10.4394 17.596 10.2225 17.6391 10.0035 17.6391C9.78449 17.6391 9.56761 17.596 9.36528 17.5121C9.16295 17.4282 8.97914 17.3053 8.82435 17.1503L1.66602 10.0003V1.66699H9.99935L17.1577 8.82533C17.4681 9.1376 17.6423 9.56002 17.6423 10.0003C17.6423 10.4406 17.4681 10.8631 17.1577 11.1753V11.1753Z" stroke="#6E6E6E" stroke-width="1.5" stroke-linecap="round" stroke-linejoin="round"/>
<path d="M5.83398 5.83301H5.84232" stroke="#6E6E6E" stroke-width="1.5" stroke-linecap="round" stroke-linejoin="round"/>
</svg>
